{
  "name": "Movie",
  "fields": [
    {
      "fieldName": "title",
      "fieldType": "String",
      "fieldValidateRules": ["maxlength"],
      "fieldValidateRulesMaxlength": "200"
    },
    {
      "fieldName": "forAdult",
      "fieldType": "Boolean"
    },
    {
      "fieldName": "homepage",
      "fieldType": "String"
    },
    {
      "fieldName": "originalLanguage",
      "fieldType": "String"
    },
    {
      "fieldName": "originalTitle",
      "fieldType": "String"
    },
    {
      "fieldName": "overview",
      "fieldType": "String",
      "fieldValidateRules": ["maxlength"],
      "fieldValidateRulesMaxlength": "4000"
    },
    {
      "fieldName": "tagline",
      "fieldType": "String"
    },
    {
      "fieldName": "status",
      "fieldType": "MovieStatus",
      "fieldValues": "RUMORED,PLANNED,IN_PRODUCTION,POST_PRODUCTION,RELEASED,CANCELED"
    },
    {
      "fieldName": "voteAverage",
      "fieldType": "Float",
      "fieldValidateRules": ["min", "max"],
      "fieldValidateRulesMin": "0",
      "fieldValidateRulesMax": "10"
    },
    {
      "fieldName": "voteCount",
      "fieldType": "Integer"
    },
    {
      "fieldName": "releaseDate",
      "fieldType": "LocalDate"
    },
    {
      "fieldName": "lastTMDBUpdate",
      "fieldType": "LocalDate",
      "fieldValidateRules": ["required"]
    },
    {
      "fieldName": "tmdbId",
      "fieldType": "String",
      "fieldValidateRules": ["required", "unique"]
    },
    {
      "fieldName": "runtime",
      "fieldType": "Integer"
    }
  ],
  "relationships": [
    {
      "relationshipType": "one-to-many",
      "otherEntityName": "credit",
      "otherEntityRelationshipName": "movie",
      "relationshipName": "credits"
    },
    {
      "relationshipType": "one-to-many",
      "otherEntityName": "image",
      "otherEntityRelationshipName": "posterMovie",
      "relationshipName": "poster"
    },
    {
      "relationshipType": "one-to-many",
      "otherEntityName": "image",
      "otherEntityRelationshipName": "backdropMovie",
      "relationshipName": "backdrop"
    },
    {
      "relationshipType": "many-to-many",
      "otherEntityName": "genre",
      "otherEntityRelationshipName": "movie",
      "relationshipName": "genre",
      "otherEntityField": "name",
      "ownerSide": true
    }
  ],
  "changelogDate": "20210101134822",
  "javadoc": "The Movie entity.\\n@author A true hipster",
  "entityTableName": "movie",
  "dto": "mapstruct",
  "pagination": "infinite-scroll",
  "service": "serviceClass",
  "jpaMetamodelFiltering": true,
  "fluentMethods": true,
  "readOnly": false,
  "embedded": false,
  "clientRootFolder": "",
  "applications": "*"
}
