{
  "name": "MyMovie",
  "fields": [
    {
      "fieldName": "comments",
      "fieldType": "String",
      "javadoc": "fieldName",
      "fieldValidateRules": ["maxlength"],
      "fieldValidateRulesMaxlength": "4000"
    },
    {
      "fieldName": "vote",
      "fieldType": "Integer",
      "fieldValidateRules": ["min", "max"],
      "fieldValidateRulesMin": "0",
      "fieldValidateRulesMax": "5"
    },
    {
      "fieldName": "viewedDate",
      "fieldType": "LocalDate"
    }
  ],
  "relationships": [
    {
      "relationshipType": "many-to-one",
      "otherEntityName": "movie",
      "otherEntityRelationshipName": "myMovie",
      "relationshipName": "movie",
      "otherEntityField": "title"
    },
    {
      "relationshipType": "many-to-one",
      "otherEntityName": "user",
      "otherEntityRelationshipName": "myMovie",
      "relationshipName": "user",
      "otherEntityField": "login"
    }
  ],
  "changelogDate": "20210101134922",
  "javadoc": "The Entity entity.\\n@author A true hipster",
  "entityTableName": "my_movie",
  "dto": "mapstruct",
  "pagination": "infinite-scroll",
  "service": "serviceClass",
  "jpaMetamodelFiltering": true,
  "fluentMethods": true,
  "readOnly": false,
  "embedded": false,
  "clientRootFolder": "",
  "applications": "*"
}
